{
  "orders": [
    {
      "id": 101,
      "userId": 1,
      "productId": 10,
      "orderStatus": "PAID",
      "totalAmount": 22000,
      "quantity": 2,
      "kakaoPayReadyUrl": "https://kapi.kakao.com/ready/xyz123",
      "createdAt": "2025-05-01T12:00:00",
      "updatedAt": "2025-05-01T12:10:00"
    },
    {
      "id": 102,
      "userId": 2,
      "productId": 11,
      "orderStatus": "PAID",
      "totalAmount": 15000,
      "quantity": 1,
      "kakaoPayReadyUrl": "https://kapi.kakao.com/ready/xyz456",
      "createdAt": "2025-05-01T12:15:00",
      "updatedAt": "2025-05-01T12:15:00"
    }
  ],
  "currentPage": 1,
  "totalPages": 5,
  "totalElements": 47
}
